{
  "films": [
    {
      "filmName": "мертвые псы",
      "year": "1996",
      "type": "horror",
      "cover": "/mycinema/db/1.jpeg"
    },
    {
      "filmName": "живые коты",
      "year": "2000",
      "type": "love",
      "cover": "/mycinema/db/2.jpeg"
    },
    {
      "filmName": "блядюжник",
      "year": "2019",
      "type": "comedy",
      "cover": "/mycinema/db/3.jpeg"
    },
    {
      "filmName": "резня отверткой 5",
      "year": "1996",
      "type": "trash",
      "cover": "/mycinema/db/4.jpeg"
    },
    {
      "filmName": "похититель",
      "year": "2000",
      "type": "horror",
      "cover": "/mycinema/db/5.jpeg"
    },
    {
      "filmName": "suka prazdnuut",
      "year": "2000",
      "type": "comedy",
      "cover": "/mycinema/db/6.jpeg"
    },
    {
      "filmName": "джунгли",
      "year": "1990",
      "type": "trash",
      "cover": "/mycinema/db/7.jpeg"
    },
    {
      "filmName": "любовь морковь",
      "year": "2019",
      "type": "love",
      "cover": "/mycinema/db/8.jpeg"
    },
    {
      "filmName": "bazelik OOO",
      "year": "2002",
      "type": "love",
      "cover": "/mycinema/db/9.jpeg"
    },
    {
      "filmName": "film o 999",
      "year": "1990",
      "type": "comedy",
      "cover": "/mycinema/db/10.jpeg"
    }
  ]
}
